{
	"main_script": "snap_one.js",
	"icon": "snap_one.png",
	"width": 600,
	"height": 600,
	"animation": true,
	"dependencies": [
	],
	"title": "Snap SVG example",
	"version": "1.1.0",
	"description": "SAGE2 tutorial application using Snap.svg, to create interactive, resolution-independent vector graphics that will look great on any size screen. The Snap.svg JavaScript library makes working with your SVG assets very easy. http://snapsvg.io/",
	"keywords": [ "snap", "svg", "example" ],
	"author": "Luc Renambot <renambot@gmail.com>",
	"license": "SAGE2-Software-License"
}
