{
	"main_script": "physics3d.js",
	"icon": "physics3d.png",
	"width": 800,
	"height": 600,
	"resize": "free",
	"animation": true,
	"dependencies": [
		"/lib/three.min.js",
		"libs/physi.js"
	],
	"load": {
	},
	"title": "physics3d",
	"version": "1.0.0",
	"description": "SAGE2 tutorial application using the physics engine Physijs. Physijs brings a very easy to use interface to the three.js framework",
	"keywords": [ "physics3d", "demo", "Physijs", "physics", "threejs" ],
	"author": "Luc Renambot <renambot@gmail.com>",
	"license": "SAGE2-Software-License"
}
