{
	"main_script": "scale_div.js",
	"icon": "scale_div.png",
	"width": 800,
	"height": 600,
	"dependencies": [
	],
	"load": {
		"value": 4
	},
	"title": "scale_div",
	"version": "1.0.0",
	"description": "SAGE2 tutorial application showing how to create a div element and scale it with its parent window",
	"keywords": [ "DOM", "demo", "div" ],
	"author": "luc renambot <renambot@gmail.com>",
	"license": "SAGE2-Software-License"
}
