{
	"main_script": "clock.js",
	"icon": "clock.png",
	"width": 600,
	"height": 600,
	"animation": true,
	"load": {
	},
	"dependencies": [
	],
	"title": "Clock",
	"version": "1.0.0",
	"description": "A 2D basic clock written using the canvas element",
	"keywords": [ "clock", "2d", "canvas" ],
	"author": "Thomas Marrinan <thomas.j.marrinan@gmail.com>",
	"license": "SAGE2-Software-License"
}
