{
	"main_script": "scale_div.js",
	"icon": "scale_div.png",
	"width": 800,
	"height": 600,
	"dependencies": [
	],
	"load": {
		"value": 4
	},
	"title": "scale_div",
	"version": "1.0.0",
	"description": "SAGE2 application div",
	"keywords": [ "sage2", "div" ],
	"author": "luc renambot <renambot@gmail.com>",
	"license": "SAGE2-Software-License"
}
