{
	"main_script": "JqueryUIDemo.js",
	"icon": "JqueryUIDemo.png",
	"width": 800,
	"height": 600,
	"dependencies": [
		"libs/jquery-ui.min.css",
		"libs/jquery-2.1.4.min.js",
		"libs/jquery-ui.min.js"
	],
	"load": {
	},
	"title": "JqueryUIDemo",
	"version": "1.0.0",
	"description": "A tutorial application showing how to load jquery and building ui elements",
	"keywords": [ "JqueryUIDemo", "jquery", "ui", "demo", "event" ],
	"author": "Luc Renambot <renambot@gmail.com>",
	"license": "SAGE2-Software-License"
}
