{
	"main_script": "bounce.js",
	"icon": "test_icon.png",
	"width": 400,
	"height": 300,
	"animation": true,
	"dependencies": [
	],
	"load": {
		"vel": 1.0,
		"pos": [0.5, 0.5],
		"dir": [0.7071, 0.7071]
	},
	"title": "Bounce",
	"version": "1.0.0",
	"description": "Tutorial SAGE2 application on how to use the canvas for 2D animation",
	"keywords": [ "canvas", "2d" ],
	"author": "Thomas Marrinan <thomas.j.marrinan@gmail.com>",
	"license": "SAGE2-Software-License"
}
