{
	"main_script": "Timezone.js",
	"icon": "timezone_icon.png",
	"width": 600,
	"height": 300,
	"animation": true,
	"dependencies": [
	],
	"load": {
		"value": 4,
		"clocks": []
	},
	"title": "Timezone",
	"version": "1.0.0",
	"description": "Timezone application displays clocks for various timezones. User can add clocks by entering a city name",
	"keywords": [ "builtin", "application", "timezone", "time" ],
	"author": "Andrea Rottigni <arotti2@uic.edu>",
	"license": "SAGE2-Software-License"
}
