{
	"main_script": "iframe.js",
	"width": 1280,
	"height": 800,
	"dependencies": [
	],
	"title": "iFrame loader",
	"version": "1.0.0",
	"description": "Loading an iframe",
	"keywords": [ "iframe" ],
	"author": "Luc Renambot <renambot@gmail.com>",
	"license": "SAGE2-Software-License"
}
